{
  "front-version": "2.19.1",
  "version": 3,
  "nodes": [
    {
      "type": "Project",
      "id": "07aaa2fb-a14e-467c-a33d-c891ebd4a821",
      "lastModified": "2018-11-16T08:48:20.188+01:00",
      "name": "XES"
    },
    {
      "type": "Request",
      "method": {
        "link": "http://tools.ietf.org/html/rfc7231#section-4.3.1",
        "name": "GET"
      },
      "body": {
        "formBody": {
          "overrideContentType": true,
          "encoding": "application/x-www-form-urlencoded",
          "items": []
        },
        "bodyType": "Text",
        "autoSetLength": true
      },
      "headersType": "Form",
      "uri": {
        "query": {
          "delimiter": "&",
          "items": []
        },
        "scheme": {
          "name": "http",
          "version": "V11"
        },
        "host": "localhost:8080",
        "path": "/env"
      },
      "id": "64a3dae3-c88f-4c83-8631-cd8309d9cc7a",
      "lastModified": "2018-11-16T08:48:06.290+01:00",
      "name": "get Env",
      "headers": [],
      "metaInfo": {},
      "parentId": "07aaa2fb-a14e-467c-a33d-c891ebd4a821"
    },
    {
      "type": "Request",
      "method": {
        "requestBody": true,
        "link": "http://tools.ietf.org/html/rfc7231#section-4.3.3",
        "name": "POST"
      },
      "body": {
        "formBody": {
          "overrideContentType": true,
          "encoding": "application/x-www-form-urlencoded",
          "items": []
        },
        "bodyType": "Text",
        "autoSetLength": true
      },
      "headersType": "Form",
      "uri": {
        "query": {
          "delimiter": "&",
          "items": [
            {
              "enabled": true,
              "name": "val",
              "value": "test2"
            }
          ]
        },
        "scheme": {
          "name": "http",
          "version": "V11"
        },
        "host": "localhost:8080",
        "path": "/env"
      },
      "id": "d1745a96-a8b2-4783-be44-7e55a2a713a4",
      "lastModified": "2018-11-16T08:48:20.188+01:00",
      "name": "set Env",
      "headers": [],
      "metaInfo": {},
      "parentId": "07aaa2fb-a14e-467c-a33d-c891ebd4a821"
    }
  ]
}